<?xml version="1.0" encoding="UTF-8" standalone="no"?>
<!-- Created with Inkscape (http://www.inkscape.org/) -->

<svg
   xmlns:dc="http://purl.org/dc/elements/1.1/"
   xmlns:cc="http://creativecommons.org/ns#"
   xmlns:rdf="http://www.w3.org/1999/02/22-rdf-syntax-ns#"
   xmlns:svg="http://www.w3.org/2000/svg"
   xmlns="http://www.w3.org/2000/svg"
   xmlns:xlink="http://www.w3.org/1999/xlink"
   xmlns:sodipodi="http://sodipodi.sourceforge.net/DTD/sodipodi-0.dtd"
   xmlns:inkscape="http://www.inkscape.org/namespaces/inkscape"
   id="svg3090"
   version="1.1"
   inkscape:version="0.48.3.1 r9886"
   width="16"
   height="16"
   sodipodi:docname="blue.svg">
  <metadata
     id="metadata3096">
    <rdf:RDF>
      <cc:Work
         rdf:about="">
        <dc:format>image/svg+xml</dc:format>
        <dc:type
           rdf:resource="http://purl.org/dc/dcmitype/StillImage" />
        <dc:title />
      </cc:Work>
    </rdf:RDF>
  </metadata>
  <defs
     id="defs3094">
    <linearGradient
       id="linearGradient3880">
      <stop
         style="stop-color:#60b0e0;stop-opacity:1;"
         offset="0"
         id="stop3882" />
      <stop
         style="stop-color:#a4d3ed;stop-opacity:1;"
         offset="1"
         id="stop3884" />
    </linearGradient>
    <linearGradient
       inkscape:collect="always"
       xlink:href="#linearGradient3880-7"
       id="linearGradient3886-9"
       x1="-1"
       y1="16"
       x2="-1"
       y2="9.2805195"
       gradientUnits="userSpaceOnUse" />
    <linearGradient
       id="linearGradient3880-7">
      <stop
         style="stop-color:#007e00;stop-opacity:1;"
         offset="0"
         id="stop3882-2" />
      <stop
         style="stop-color:#00c000;stop-opacity:1;"
         offset="1"
         id="stop3884-7" />
    </linearGradient>
    <linearGradient
       inkscape:collect="always"
       xlink:href="#linearGradient3880"
       id="linearGradient3925"
       gradientUnits="userSpaceOnUse"
       x1="-1"
       y1="16"
       x2="-1"
       y2="9.2805195" />
  </defs>
  <sodipodi:namedview
     pagecolor="#ffffff"
     bordercolor="#666666"
     borderopacity="1"
     objecttolerance="10"
     gridtolerance="10"
     guidetolerance="10"
     inkscape:pageopacity="0"
     inkscape:pageshadow="2"
     inkscape:window-width="1280"
     inkscape:window-height="882"
     id="namedview3092"
     showgrid="true"
     inkscape:zoom="48.5625"
     inkscape:cx="8"
     inkscape:cy="3.45"
     inkscape:window-x="0"
     inkscape:window-y="24"
     inkscape:window-maximized="1"
     inkscape:current-layer="svg3090">
    <inkscape:grid
       type="xygrid"
       id="grid3100"
       empspacing="5"
       visible="true"
       enabled="true"
       snapvisiblegridlinesonly="true" />
  </sodipodi:namedview>
  <image
     width="16"
     height="16"
     xlink:href="data:image/png;base64,iVBORw0KGgoAAAANSUhEUgAAABAAAAAQCAYAAAAf8/9hAAAABHNCSVQICAgIfAhkiAAAApBJREFU OI2FkU9IFFEcx78zO7Pr7qbVjiKpaSvSVuC/NpcOXiwxO0QEoiCBEWIkZHUoLDx48JC3IEgi6ajQ n4MJIRKJHRJWpUgURXFzC8twndmdnZndmffedhFxdwO/8A7vfT98+PF7XCqVAgBUlZYCAL6Hw+hq b290OByD4LizlmlC07SgrmkP301OTu/nAIDLFFTW1vpdOeIMTfEiJQSWZSGZTIKYuhWL6f7I9vbC fgGPjOia9lhWVLEg34PcPDdisRjiqopoVBOTiURvJi9kPpi6clnKJei50Yk8RPB1qRRLYQ0jbz4A 1LqayWdNICu6s6PrPg4fygExTVRWFOJ6y0XcvdeNuEHdBwoGWldDVSVJmMomqGWCWiZMZRP1p2x4 evP3woECAEN/Vt6Dd0lIcSJSnADeJeHv+iQADGXCe7+wP5/6xeeFFVdu53ubAADbPz5ia3Vs6EK/ 1Z3JZi1xN4+21sb9W2vjgd17EEDf/8C0CerqWhsAdDY3+9o76hM44bsEAPi5Po1XU8DExMoIgOHZ 2ddTaQK/v6UcwC2323nH6/U6DEPjR0cH8aW3B44jefD3DqCt7QHc7lwWCoWSmmY8A/Bifv7tOldT c62G5/nPZWXHnZIkCYaRhN1uQ3V1OXzLM3BIEpaOncHc3DIsKwWn04FIJELC4V8JSmmTraDgZF9x cdF5QRAFWY5C1w0kEiaCwW9obgzAXVKMJy/HwPMi4nENqqpBEETe5XLysqzYBEJYo64bgqLE0pZj WQw7i4vQPUdhWQyRyM5eF40CdrsoEMIaBEppkSwrYIylCXieQ3xtFabHA0oJVFXN6iml+TxjbJgQ AsZY2gmc88Hc2IARDiMQOJ3VE0LBGBv+Bw1YS/ImP1dcAAAAAElFTkSuQmCC "
     id="image3098"
     x="0"
     y="0" />
  <path
     style="fill:url(#linearGradient3925);fill-opacity:1;stroke:#2f98d6;stroke-opacity:1"
     d="m 4,9.8 -2.2,1.4 -1.3,1.8 0,1.5 1,1 13,0 1,-1 0,-1.5 L 14.2,11.2 12,9.8 10.59375,9.6 9.3441837,10.5 7,10.5 5.40625,9.6 z"
     id="path3102"
     inkscape:connector-curvature="0"
     sodipodi:nodetypes="ccccccccccccccc" />
</svg>
